%YAML 1.1
%TAG !u! tag:unity3d.com,2011:
--- !u!114 &11400000
MonoBehaviour:
  m_ObjectHideFlags: 0
  m_CorrespondingSourceObject: {fileID: 0}
  m_PrefabInstance: {fileID: 0}
  m_PrefabAsset: {fileID: 0}
  m_GameObject: {fileID: 0}
  m_Enabled: 1
  m_EditorHideFlags: 0
  m_Script: {fileID: 11500000, guid: e576f5a51f1a25542aca0ed5b87e120a, type: 3}
  m_Name: Ramen_FoodInformation
  m_EditorClassIdentifier: 
  _foodID: 3
  _foodName: Ramen
  _foodVideo: {fileID: 32900000, guid: 61e0ebee82e7f0e4aa0ec67740012aff, type: 3}
  _foodDescription: Bouncy noodles that makes you feels high while chewing it. Experience
    the deeply favoured soup. 1 taste of the soup will give you the experience of
    a mini umani explosion.
  _foodPrice: RM10.00
